^C:\USERS\OSCAR.S\DESKTOP\CS260_ASSIGNMENT_3_REPO\REDOING P2P\SERVER\X64\DEBUG\SERVER.OBJ
C:\USERS\OSCAR.S\DESKTOP\CS260_ASSIGNMENT_3_REPO\REDOING P2P\X64\DEBUG\SERVER.ILK
C:\USERS\OSCAR.S\DESKTOP\CS260_ASSIGNMENT_3_REPO\REDOING P2P\X64\DEBUG\SERVER.EXE
C:\USERS\OSCAR.S\DESKTOP\CS260_ASSIGNMENT_3_REPO\REDOING P2P\X64\DEBUG\SERVER.PDB
