^C:\USERS\OSCAR.S\DESKTOP\REDOING P2P\SERVER\X64\DEBUG\SERVER.OBJ
/OUT:"C:\USERS\OSCAR.S\DESKTOP\REDOING P2P\X64\DEBUG\SERVER.EXE" /INCREMENTAL /NOLOGO KERNEL32.LIB USER32.LIB GDI32.LIB WINSPOOL.LIB COMDLG32.LIB ADVAPI32.LIB SHELL32.LIB OLE32.LIB OLEAUT32.LIB UUID.LIB ODBC32.LIB ODBCCP32.LIB /MANIFEST /MANIFESTUAC:"level='asInvoker' uiAccess='false'" /manifest:embed /DEBUG /PDB:"C:\USERS\OSCAR.S\DESKTOP\REDOING P2P\X64\DEBUG\SERVER.PDB" /SUBSYSTEM:CONSOLE /TLBID:1 /DYNAMICBASE /NXCOMPAT /IMPLIB:"C:\USERS\OSCAR.S\DESKTOP\REDOING P2P\X64\DEBUG\SERVER.LIB" /MACHINE:X64 X64\DEBUG\SERVER.OBJ
^C:\USERS\OSCAR.S\DESKTOP\CS260_ASSIGNMENT_3_REPO\REDOING P2P\SERVER\X64\DEBUG\SERVER.OBJ
/OUT:"C:\USERS\OSCAR.S\DESKTOP\CS260_ASSIGNMENT_3_REPO\REDOING P2P\X64\DEBUG\SERVER.EXE" /INCREMENTAL /NOLOGO KERNEL32.LIB USER32.LIB GDI32.LIB WINSPOOL.LIB COMDLG32.LIB ADVAPI32.LIB SHELL32.LIB OLE32.LIB OLEAUT32.LIB UUID.LIB ODBC32.LIB ODBCCP32.LIB /MANIFEST /MANIFESTUAC:"level='asInvoker' uiAccess='false'" /manifest:embed /DEBUG /PDB:"C:\USERS\OSCAR.S\DESKTOP\CS260_ASSIGNMENT_3_REPO\REDOING P2P\X64\DEBUG\SERVER.PDB" /SUBSYSTEM:CONSOLE /TLBID:1 /DYNAMICBASE /NXCOMPAT /IMPLIB:"C:\USERS\OSCAR.S\DESKTOP\CS260_ASSIGNMENT_3_REPO\REDOING P2P\X64\DEBUG\SERVER.LIB" /MACHINE:X64 X64\DEBUG\SERVER.OBJ
