^C:\USERS\OSCAR.S\DESKTOP\CS260_ASSIGNMENT_3_REPO\REDOING P2P\CLIENT\CLIENT.CPP
C:\USERS\OSCAR.S\DESKTOP\CS260_ASSIGNMENT_3_REPO\REDOING P2P\CLIENT\X64\DEBUG\VC140.PDB
C:\USERS\OSCAR.S\DESKTOP\CS260_ASSIGNMENT_3_REPO\REDOING P2P\CLIENT\X64\DEBUG\VC140.IDB
C:\USERS\OSCAR.S\DESKTOP\CS260_ASSIGNMENT_3_REPO\REDOING P2P\CLIENT\X64\DEBUG\CLIENT.OBJ
